A	B	C	D
670	99692.89213	77856	0.78095
671	131828.08316	102936	0.78083
672	173054.62615	135146	0.78094
673	230561.00629	179961	0.78053
674	306312.49131	239141	0.78071
675	398696.77579	311356	0.78093
676	511468.007	399656	0.78139
677	659287.85926	514811	0.78086
678	790110.16262	617146	0.78109
679	952668.6129	744396	0.78138
680	1.13337E6	885676	0.78146
681	1.31152E6	1.02456E6	0.7812
682	1.51217E6	1.18152E6	0.78133
683	1.70878E6	1.33553E6	0.78156
684	1.92757E6	1.50547E6	0.78102
685	2.04725E6	1.5995E6	0.78129
686	2.11061E6	1.64902E6	0.78131
687	2.08757E6	1.63061E6	0.7811
688	2.01282E6	1.57311E6	0.78155
689	1.87484E6	1.46416E6	0.78097
690	1.71525E6	1.33984E6	0.78116
691	1.62784E6	1.27137E6	0.78101
692	1.55131E6	1.21224E6	0.78142
693	1.502E6	1.17296E6	0.78093
694	1.47296E6	1.15061E6	0.78114
695	1.48741E6	1.16207E6	0.78129
696	1.49193E6	1.1649E6	0.7808
697	1.50795E6	1.17764E6	0.78096
698	1.50302E6	1.17376E6	0.78092
699	1.51208E6	1.18102E6	0.78105
700	1.50195E6	1.17249E6	0.78064
701	1.53282E6	1.1965E6	0.78059
702	1.55655E6	1.21465E6	0.78037
703	1.57296E6	1.22781E6	0.78054
704	1.63295E6	1.27517E6	0.78088
705	1.64413E6	1.28387E6	0.7809
706	1.68927E6	1.31929E6	0.78098
707	1.72017E6	1.34345E6	0.78099
708	1.76003E6	1.37456E6	0.78097
709	1.8129E6	1.41547E6	0.78077
710	1.8196E6	1.42125E6	0.78105
711	1.83407E6	1.43234E6	0.78095
712	1.84107E6	1.43799E6	0.78103
713	1.83457E6	1.43315E6	0.78117
714	1.81209E6	1.41599E6	0.78143
715	1.76618E6	1.37992E6	0.78128
716	1.76803E6	1.38131E6	0.78125
717	1.71646E6	1.34071E6	0.78108
718	1.66121E6	1.29808E6	0.78141
719	1.59959E6	1.24941E6	0.78106
720	1.54271E6	1.20542E6	0.78137
721	1.48113E6	1.157E6	0.78113
722	1.42606E6	1.11384E6	0.78102
723	1.37266E6	1.07204E6	0.78099
724	1.28446E6	1.00284E6	0.78069
725	1.2179E6	950791	0.78068
726	1.1565E6	902796	0.78062
727	1.08692E6	848506	0.78066
728	1.01187E6	789906	0.78064
729	974188.67519	760276	0.78038
730	910488.18766	710771	0.78063
