A	B	C	D
670	116986.21767	91084	0.77859
671	150693.81886	117304	0.77842
672	187785.2238	146169	0.77841
673	262880.07299	204604	0.77831
674	349056.22217	271799	0.77864
675	451870.67323	351729	0.77838
676	566030.98585	440689	0.77855
677	717430.93928	558444	0.77841
678	831892.61187	647389	0.77818
679	983798.02682	766159	0.77876
680	1.13758E6	886039	0.77888
681	1.30721E6	1.01772E6	0.77856
682	1.43915E6	1.12022E6	0.77837
683	1.57054E6	1.22248E6	0.77838
684	1.71632E6	1.33564E6	0.77818
685	1.76309E6	1.37229E6	0.77835
686	1.80394E6	1.40431E6	0.77845
687	1.74739E6	1.35998E6	0.77828
688	1.6497E6	1.28461E6	0.77868
689	1.52722E6	1.18995E6	0.77914
690	1.34431E6	1.04796E6	0.77955
691	1.21829E6	949509	0.77936
692	1.14698E6	893789	0.77925
693	1.08196E6	842804	0.77896
694	1.02706E6	800059	0.77897
695	1.02803E6	800694	0.77886
696	1.0205E6	794719	0.77875
697	1.0164E6	791354	0.77858
698	985189.98152	767194	0.77873
699	963008.32964	750234	0.77904
700	955566.84717	744084	0.77868
701	944431.37734	735779	0.77907
702	934438.04855	727374	0.77841
703	948377.45313	738804	0.779
704	972281.48158	757284	0.77886
705	971600.7612	757029	0.77913
706	973817.04051	758484	0.77889
707	1.00248E6	781099	0.77914
708	1.0161E6	791764	0.77922
709	1.02863E6	801789	0.77945
710	1.04942E6	818124	0.77958
711	1.04322E6	813599	0.77991
712	1.03483E6	807364	0.78018
713	1.05035E6	820119	0.78081
714	1.02575E6	800804	0.7807
715	988546.0649	772024	0.78096
716	992880.60332	775404	0.78095
717	948358.93975	739819	0.78011
718	928293.93933	724264	0.7802
719	921309.26017	718219	0.77955
720	874878.69088	682519	0.7801
721	835067.55923	651119	0.77971
722	787463.42718	614324	0.78012
723	751357.74011	585574	0.7793
724	740095.01045	576699	0.77923
725	691871.97102	539089	0.77917
726	647999.55389	504814	0.77903
727	616405.34751	480194	0.77898
728	587635.1924	457549	0.77864
729	557431.24699	434164	0.77888
730	520293.4751	405314	0.77901
