A	B	C	D
670	160554.31534	128043	0.7975
671	212998.54866	169788	0.79714
672	283538.52231	226048	0.79722
673	391607.37197	312218	0.7973
674	540313.76135	431023	0.79774
675	718245.86317	572968	0.79774
676	920462.10324	734383	0.79784
677	1.16895E6	932973	0.79812
678	1.4307E6	1.14168E6	0.79799
679	1.68277E6	1.34337E6	0.79831
680	1.97782E6	1.57996E6	0.79885
681	2.24365E6	1.79384E6	0.79952
682	2.51903E6	2.01423E6	0.79961
683	2.79013E6	2.23114E6	0.79966
684	3.02671E6	2.41997E6	0.79954
685	3.18498E6	2.54726E6	0.79978
686	3.22423E6	2.578E6	0.79957
687	3.19576E6	2.55342E6	0.799
688	3.03936E6	2.42496E6	0.79785
689	2.79469E6	2.2289E6	0.79755
690	2.56439E6	2.04395E6	0.79705
691	2.35988E6	1.88083E6	0.797
692	2.19975E6	1.75254E6	0.7967
693	2.0918E6	1.66706E6	0.79695
694	2.04127E6	1.62679E6	0.79695
695	1.99121E6	1.58679E6	0.7969
696	1.9611E6	1.5631E6	0.79705
697	1.90998E6	1.52254E6	0.79715
698	1.87009E6	1.49027E6	0.7969
699	1.82736E6	1.45632E6	0.79695
700	1.78447E6	1.42276E6	0.7973
701	1.76037E6	1.40337E6	0.7972
702	1.73317E6	1.38133E6	0.797
703	1.69777E6	1.35288E6	0.79685
704	1.71761E6	1.36851E6	0.79675
705	1.70645E6	1.36013E6	0.79705
706	1.72371E6	1.37397E6	0.7971
707	1.71918E6	1.36993E6	0.79685
708	1.74581E6	1.39115E6	0.79685
709	1.74035E6	1.38663E6	0.79675
710	1.78742E6	1.42349E6	0.7964
711	1.76572E6	1.40666E6	0.79665
712	1.76164E6	1.40367E6	0.7968
713	1.75935E6	1.40202E6	0.7969
714	1.73647E6	1.3831E6	0.7965
715	1.69924E6	1.35412E6	0.7969
716	1.68462E6	1.34189E6	0.79655
717	1.62928E6	1.29755E6	0.7964
718	1.58758E6	1.26436E6	0.7964
719	1.55235E6	1.23699E6	0.79685
720	1.47513E6	1.17488E6	0.79645
721	1.40317E6	1.11805E6	0.7968
722	1.35157E6	1.07727E6	0.79705
723	1.30116E6	1.03676E6	0.7968
724	1.2307E6	980683	0.79685
725	1.16702E6	930173	0.79705
726	1.10359E6	879673	0.7971
727	1.05421E6	839573	0.7964
728	985085.31257	784478	0.79635
729	928181.79154	739298	0.7965
730	903300.071	719253	0.79625
