A	B	C	D
670	3455.87048	2755	0.79727
671	4080.48635	3255	0.79764
672	4691.67494	3740	0.79721
673	5015.41576	4000	0.79746
674	6642.99659	5295	0.79713
675	7533.44127	6005	0.7971
676	8870.75102	7070	0.79702
677	10518.05696	8385	0.79717
678	11973.9528	9545	0.79714
679	14128.00391	11270	0.79767
680	16358.2152	13055	0.79802
681	18665.11958	14900	0.7983
682	20620.33465	16460	0.79824
683	22978.88724	18350	0.79855
684	25517.17181	20350	0.7975
685	26467.98846	21120	0.79795
686	28238.92048	22550	0.79855
687	27645.2753	22085	0.79885
688	26497.98216	21165	0.7987
689	25135.76749	20090	0.79925
690	23958.31806	19140	0.7989
691	21815.86517	17420	0.7985
692	21268.926	16980	0.79835
693	18740.38901	14955	0.798
694	18807.67206	15000	0.79755
695	18130.28379	14460	0.79755
696	17937.71633	14300	0.7972
697	18012.63177	14365	0.7975
698	17657.72511	14080	0.7974
699	17644.05577	14070	0.79745
700	17810.89195	14200	0.79725
701	16891.73375	13465	0.79715
702	17093.63296	13625	0.79705
703	17516.81653	13965	0.79725
704	16537.96815	13190	0.79755
705	17244.57922	13755	0.79765
706	17132.99226	13655	0.797
707	16986.4064	13540	0.7971
708	17041.99746	13585	0.79715
709	16420.82961	13085	0.79685
710	17385.63923	13855	0.79695
711	17083.28201	13615	0.797
712	17767.07119	14160	0.797
713	17047.22116	13590	0.7972
714	16634.65062	13260	0.79715
715	17069.91295	13605	0.797
716	16412.3264	13080	0.79695
717	15782.12824	12580	0.79715
718	14874.70194	11860	0.7973
719	14462.39378	11535	0.79755
720	14573.19393	11620	0.79735
721	13683.48094	10905	0.7969
722	12923.78291	10305	0.79745
723	12519.73658	9985	0.7975
724	12064.39897	9615	0.7971
725	11522.14646	9195	0.798
726	10862.32707	8665	0.79765
727	10183.98692	8130	0.7982
728	9844.30654	7855	0.79805
729	9605.997	7665	0.798
730	9246.18805	7380	0.7982
