800.0000	0.0154831
799.5000	0.0156348
799.0000	0.0159336
798.5000	0.0157337
798.0000	0.0156526
797.5000	0.0156694
797.0000	0.0156508
796.5000	0.0156228
796.0000	0.0156613
795.5000	0.015849
795.0000	0.0161003
794.5000	0.0159966
794.0000	0.0159683
793.5000	0.0158349
793.0000	0.0157008
792.5000	0.0156659
792.0000	0.015522
791.5000	0.0156277
791.0000	0.0156616
790.5000	0.0156209
790.0000	0.0157938
789.5000	0.0158614
789.0000	0.0161028
788.5000	0.0160826
788.0000	0.0161863
787.5000	0.016403
787.0000	0.0161742
786.5000	0.0166134
786.0000	0.0164423
785.5000	0.0163931
785.0000	0.0163524
784.5000	0.0162448
784.0000	0.0164075
783.5000	0.0163526
783.0000	0.0162942
782.5000	0.016334
782.0000	0.0162097
781.5000	0.0163522
781.0000	0.0160791
780.5000	0.0157629
780.0000	0.0156491
779.5000	0.0153617
779.0000	0.0152399
778.5000	0.0154249
778.0000	0.0154793
777.5000	0.0154504
777.0000	0.0156637
776.5000	0.0157503
776.0000	0.0156445
775.5000	0.0155508
775.0000	0.015799
774.5000	0.0159664
774.0000	0.0159048
773.5000	0.0160082
773.0000	0.0162384
772.5000	0.016428
772.0000	0.0164236
771.5000	0.0164038
771.0000	0.0164221
770.5000	0.0164147
770.0000	0.0164791
769.5000	0.0166539
769.0000	0.0163324
768.5000	0.0163686
768.0000	0.0163383
767.5000	0.0166508
767.0000	0.0168428
766.5000	0.0164309
766.0000	0.0165661
765.5000	0.0166428
765.0000	0.0166622
764.5000	0.0165202
764.0000	0.0164281
763.5000	0.0167877
763.0000	0.0168117
762.5000	0.0167974
762.0000	0.0169008
761.5000	0.0168671
761.0000	0.0167167
760.5000	0.0166776
760.0000	0.0164588
759.5000	0.016645
759.0000	0.0166172
758.5000	0.0165861
758.0000	0.0165221
757.5000	0.0166118
757.0000	0.0165947
756.5000	0.0165573
756.0000	0.0165385
755.5000	0.0166302
755.0000	0.0168601
754.5000	0.0167749
754.0000	0.0167412
753.5000	0.0169331
753.0000	0.0169166
752.5000	0.0170043
752.0000	0.0167114
751.5000	0.016731
751.0000	0.0164876
750.5000	0.0165914
750.0000	0.016489
749.5000	0.0165333
749.0000	0.0165617
748.5000	0.0166882
748.0000	0.0168294
747.5000	0.0167385
747.0000	0.0166617
746.5000	0.0168746
746.0000	0.0168861
745.5000	0.0168922
745.0000	0.016933
744.5000	0.0169352
744.0000	0.0168618
743.5000	0.0169002
743.0000	0.0171119
742.5000	0.0174573
742.0000	0.0172922
741.5000	0.0171655
741.0000	0.0172396
740.5000	0.0173948
740.0000	0.0170952
739.5000	0.0171058
739.0000	0.0172493
738.5000	0.0174091
738.0000	0.0173834
737.5000	0.0173659
737.0000	0.0175627
736.5000	0.0176585
736.0000	0.0176182
735.5000	0.0174197
735.0000	0.0175409
734.5000	0.0177166
734.0000	0.0176285
733.5000	0.0176963
733.0000	0.0178822
732.5000	0.0178963
732.0000	0.0180482
731.5000	0.0180803
731.0000	0.0182644
730.5000	0.0185156
730.0000	0.0183848
729.5000	0.0185104
729.0000	0.0184831
728.5000	0.0184873
728.0000	0.0187803
727.5000	0.0187328
727.0000	0.0189737
726.5000	0.0189945
726.0000	0.0190748
725.5000	0.0193914
725.0000	0.0192749
724.5000	0.0192658
724.0000	0.019294
723.5000	0.0194359
723.0000	0.0197097
722.5000	0.0199249
722.0000	0.0202717
721.5000	0.0205157
721.0000	0.0208558
720.5000	0.0210049
720.0000	0.021175
719.5000	0.0212351
719.0000	0.0213879
718.5000	0.0216577
718.0000	0.0219526
717.5000	0.0221492
717.0000	0.02225
716.5000	0.0224382
716.0000	0.0229498
715.5000	0.0232513
715.0000	0.0235464
714.5000	0.023936
714.0000	0.024552
713.5000	0.024938
713.0000	0.0252451
712.5000	0.0257335
712.0000	0.0262809
711.5000	0.0268761
711.0000	0.0273206
710.5000	0.0280454
710.0000	0.0287109
709.5000	0.0293619
709.0000	0.0299786
708.5000	0.0305842
708.0000	0.0313045
707.5000	0.0322066
707.0000	0.033112
706.5000	0.0340874
706.0000	0.0351907
705.5000	0.0364225
705.0000	0.0376398
704.5000	0.0388499
704.0000	0.0401982
703.5000	0.0414887
703.0000	0.0430326
702.5000	0.0446853
702.0000	0.0463237
701.5000	0.0483215
701.0000	0.0504591
700.5000	0.0526491
700.0000	0.0549337
699.5000	0.0573353
699.0000	0.0597666
698.5000	0.0625463
698.0000	0.0653535
697.5000	0.0683761
697.0000	0.0716156
696.5000	0.0751391
696.0000	0.0790371
695.5000	0.0831552
695.0000	0.0875562
694.5000	0.0922415
694.0000	0.0973339
693.5000	0.102798
693.0000	0.10855
692.5000	0.114614
692.0000	0.121129
691.5000	0.128184
691.0000	0.135595
690.5000	0.143362
690.0000	0.151499
689.5000	0.160064
689.0000	0.169046
688.5000	0.178064
688.0000	0.187407
687.5000	0.196704
687.0000	0.206314
686.5000	0.215678
686.0000	0.225044
685.5000	0.23412
685.0000	0.242904
684.5000	0.251414
684.0000	0.259287
683.5000	0.266478
683.0000	0.273103
682.5000	0.279119
682.0000	0.284478
681.5000	0.288989
681.0000	0.292827
680.5000	0.295972
680.0000	0.298682
679.5000	0.3005
679.0000	0.301777
678.5000	0.302534
678.0000	0.302843
677.5000	0.302868
677.0000	0.30255
676.5000	0.302011
676.0000	0.301314
675.5000	0.300659
675.0000	0.299942
674.5000	0.29898
674.0000	0.297992
673.5000	0.296834
673.0000	0.295651
672.5000	0.294353
672.0000	0.292579
671.5000	0.290907
671.0000	0.289057
670.5000	0.287003
670.0000	0.284599
669.5000	0.282105
669.0000	0.279514
668.5000	0.276541
668.0000	0.273234
667.5000	0.269655
667.0000	0.266087
666.5000	0.262188
666.0000	0.258149
665.5000	0.253849
665.0000	0.249824
664.5000	0.245847
664.0000	0.241666
663.5000	0.237659
663.0000	0.233659
662.5000	0.229664
662.0000	0.225832
661.5000	0.222055
661.0000	0.218368
660.5000	0.214998
660.0000	0.211835
659.5000	0.208753
659.0000	0.206126
658.5000	0.203645
658.0000	0.201581
657.5000	0.199666
657.0000	0.197904
656.5000	0.196766
656.0000	0.195797
655.5000	0.194854
655.0000	0.194189
654.5000	0.193648
654.0000	0.193147
653.5000	0.192612
653.0000	0.192036
652.5000	0.191594
652.0000	0.190957
651.5000	0.190155
651.0000	0.189161
650.5000	0.187903
650.0000	0.186484
649.5000	0.184675
649.0000	0.182676
648.5000	0.180363
648.0000	0.177845
647.5000	0.175183
647.0000	0.172112
646.5000	0.169071
646.0000	0.165724
645.5000	0.162462
645.0000	0.159241
644.5000	0.155897
644.0000	0.152708
643.5000	0.149606
643.0000	0.14663
642.5000	0.14388
642.0000	0.141085
641.5000	0.138402
641.0000	0.13606
640.5000	0.133771
640.0000	0.131596
639.5000	0.129571
639.0000	0.127682
638.5000	0.125999
638.0000	0.124354
637.5000	0.123008
637.0000	0.12188
636.5000	0.120753
636.0000	0.119786
635.5000	0.119176
635.0000	0.118496
634.5000	0.117931
634.0000	0.117434
633.5000	0.117034
633.0000	0.116724
632.5000	0.11642
632.0000	0.116264
631.5000	0.116302
631.0000	0.116209
630.5000	0.116205
630.0000	0.116311
629.5000	0.116374
629.0000	0.116527
628.5000	0.116532
628.0000	0.116606
627.5000	0.116626
627.0000	0.116606
626.5000	0.116533
626.0000	0.116453
625.5000	0.116268
625.0000	0.116099
624.5000	0.115942
624.0000	0.11577
623.5000	0.11558
623.0000	0.115381
622.5000	0.115172
622.0000	0.114996
621.5000	0.114773
621.0000	0.1144
620.5000	0.114113
620.0000	0.113722
619.5000	0.11325
619.0000	0.112814
618.5000	0.112212
618.0000	0.111792
617.5000	0.111346
617.0000	0.110968
616.5000	0.110451
616.0000	0.1098
615.5000	0.109225
615.0000	0.108858
614.5000	0.108221
614.0000	0.10759
613.5000	0.10701
613.0000	0.106433
612.5000	0.106005
612.0000	0.105506
611.5000	0.104971
611.0000	0.104559
610.5000	0.104021
610.0000	0.103653
609.5000	0.103139
609.0000	0.102694
608.5000	0.102248
608.0000	0.101883
607.5000	0.101404
607.0000	0.101076
606.5000	0.100653
606.0000	0.100221
605.5000	0.0998411
605.0000	0.0993639
604.5000	0.0990321
604.0000	0.0985422
603.5000	0.0982188
603.0000	0.0977368
602.5000	0.0972942
602.0000	0.0969874
601.5000	0.0966178
601.0000	0.0964185
600.5000	0.0961846
600.0000	0.0959465
599.5000	0.0954875
599.0000	0.0951384
598.5000	0.0948582
598.0000	0.0946209
597.5000	0.0943387
597.0000	0.0940138
596.5000	0.0938336
596.0000	0.0936722
595.5000	0.0934522
595.0000	0.09311
594.5000	0.0928686
594.0000	0.0926641
593.5000	0.0924299
593.0000	0.092273
592.5000	0.0918992
592.0000	0.0915298
591.5000	0.0912768
591.0000	0.0909354
590.5000	0.0905639
590.0000	0.0900901
589.5000	0.0896196
589.0000	0.0893384
588.5000	0.088906
588.0000	0.0885243
587.5000	0.0881057
587.0000	0.0877844
586.5000	0.0874022
586.0000	0.0870124
585.5000	0.0864644
585.0000	0.0861269
584.5000	0.0856546
584.0000	0.0854176
583.5000	0.0849763
583.0000	0.0844552
582.5000	0.0839789
582.0000	0.0835053
581.5000	0.0830029
581.0000	0.0823696
580.5000	0.0818303
580.0000	0.0816053
579.5000	0.0812666
579.0000	0.0807892
578.5000	0.0804564
578.0000	0.0799795
577.5000	0.0794694
577.0000	0.0789969
576.5000	0.0783342
576.0000	0.0778054
575.5000	0.0772851
575.0000	0.0767286
574.5000	0.0763669
574.0000	0.07584
573.5000	0.0753101
573.0000	0.0746939
572.5000	0.0741168
572.0000	0.0734558
571.5000	0.0728828
571.0000	0.0722699
570.5000	0.0716659
570.0000	0.0711332
569.5000	0.0707296
569.0000	0.0701953
568.5000	0.0696278
568.0000	0.0690731
567.5000	0.0686002
567.0000	0.0680387
566.5000	0.0675387
566.0000	0.0670459
565.5000	0.0665927
565.0000	0.0662028
564.5000	0.0657498
564.0000	0.065389
563.5000	0.0649643
563.0000	0.064489
562.5000	0.0641609
562.0000	0.0638572
561.5000	0.0636349
561.0000	0.0634489
560.5000	0.0631613
560.0000	0.0628881
559.5000	0.0627387
559.0000	0.062651
558.5000	0.0624164
558.0000	0.0622472
557.5000	0.0621712
557.0000	0.0621361
556.5000	0.0620585
556.0000	0.0620846
555.5000	0.0621457
555.0000	0.0622707
554.5000	0.0622638
554.0000	0.0622434
553.5000	0.0622838
553.0000	0.06235
552.5000	0.0623885
552.0000	0.0625532
551.5000	0.0626821
551.0000	0.062902
550.5000	0.0630414
550.0000	0.0631599
549.5000	0.063315
549.0000	0.0634045
548.5000	0.0634939
548.0000	0.0636359
547.5000	0.0637342
547.0000	0.0639596
546.5000	0.0640006
546.0000	0.0641898
545.5000	0.0642826
545.0000	0.0643864
544.5000	0.0646592
544.0000	0.0648308
543.5000	0.0650549
543.0000	0.0652922
542.5000	0.0655029
542.0000	0.0658186
541.5000	0.0659349
541.0000	0.0660567
540.5000	0.0663668
540.0000	0.0667048
539.5000	0.0669401
539.0000	0.0672461
538.5000	0.0675115
538.0000	0.0678075
537.5000	0.0679763
537.0000	0.0683784
536.5000	0.0686484
536.0000	0.0689575
535.5000	0.0693523
535.0000	0.0698086
534.5000	0.0702152
534.0000	0.070764
533.5000	0.0711794
533.0000	0.0716773
532.5000	0.0721865
532.0000	0.0727022
531.5000	0.0734502
531.0000	0.0739727
530.5000	0.0746913
530.0000	0.0754822
529.5000	0.0764914
529.0000	0.077339
528.5000	0.0781718
528.0000	0.0790595
527.5000	0.0800329
527.0000	0.0809257
526.5000	0.0820158
526.0000	0.083169
525.5000	0.0842422
525.0000	0.0855212
524.5000	0.0868401
524.0000	0.0881876
523.5000	0.0895914
523.0000	0.0910154
522.5000	0.0923983
522.0000	0.0939907
521.5000	0.0957742
521.0000	0.0975708
520.5000	0.0993007
520.0000	0.101189
519.5000	0.103217
519.0000	0.10536
518.5000	0.107388
518.0000	0.109365
517.5000	0.11165
517.0000	0.113996
516.5000	0.116483
516.0000	0.118929
515.5000	0.121321
515.0000	0.123864
514.5000	0.126582
514.0000	0.12931
513.5000	0.132075
513.0000	0.135126
512.5000	0.138054
512.0000	0.141058
511.5000	0.144105
511.0000	0.147105
510.5000	0.150171
510.0000	0.153102
509.5000	0.156214
509.0000	0.159398
508.5000	0.162698
508.0000	0.165922
507.5000	0.169212
507.0000	0.172641
506.5000	0.175935
506.0000	0.179439
505.5000	0.182755
505.0000	0.186359
504.5000	0.189969
504.0000	0.193328
503.5000	0.196907
503.0000	0.200417
502.5000	0.203965
502.0000	0.207471
501.5000	0.210894
501.0000	0.214595
500.5000	0.218108
500.0000	0.221723
499.5000	0.225238
499.0000	0.228854
498.5000	0.232539
498.0000	0.236056
497.5000	0.239765
497.0000	0.24344
496.5000	0.247093
496.0000	0.250609
495.5000	0.254212
495.0000	0.257603
494.5000	0.261136
494.0000	0.264538
493.5000	0.267938
493.0000	0.271303
492.5000	0.274705
492.0000	0.278076
491.5000	0.281425
491.0000	0.284856
490.5000	0.287986
490.0000	0.291073
489.5000	0.294024
489.0000	0.296816
488.5000	0.299513
488.0000	0.302086
487.5000	0.304572
487.0000	0.306977
486.5000	0.309259
486.0000	0.311401
485.5000	0.313312
485.0000	0.315319
484.5000	0.316954
484.0000	0.318436
483.5000	0.319904
483.0000	0.321321
482.5000	0.322511
482.0000	0.323508
481.5000	0.324274
481.0000	0.325064
480.5000	0.325595
480.0000	0.326044
479.5000	0.326555
479.0000	0.326927
478.5000	0.327248
478.0000	0.327605
477.5000	0.327958
477.0000	0.328307
476.5000	0.328399
476.0000	0.328646
475.5000	0.328645
475.0000	0.328562
474.5000	0.328464
474.0000	0.328165
473.5000	0.32796
473.0000	0.32787
472.5000	0.327439
472.0000	0.327104
471.5000	0.326891
471.0000	0.326327
470.5000	0.325831
470.0000	0.325133
469.5000	0.324417
469.0000	0.323793
468.5000	0.322795
468.0000	0.32221
467.5000	0.321302
467.0000	0.320632
466.5000	0.319906
466.0000	0.319231
465.5000	0.318747
465.0000	0.318327
464.5000	0.317952
464.0000	0.317535
463.5000	0.317156
463.0000	0.31668
462.5000	0.316378
462.0000	0.316193
461.5000	0.316073
461.0000	0.316102
460.5000	0.316428
460.0000	0.316742
459.5000	0.31718
459.0000	0.317723
458.5000	0.318217
458.0000	0.318757
457.5000	0.319457
457.0000	0.320262
456.5000	0.321162
456.0000	0.322026
455.5000	0.323126
455.0000	0.324334
454.5000	0.325864
454.0000	0.32754
453.5000	0.329227
453.0000	0.331215
452.5000	0.333284
452.0000	0.335538
451.5000	0.337885
451.0000	0.340349
450.5000	0.342902
450.0000	0.345726
449.5000	0.348518
449.0000	0.351584
448.5000	0.354364
448.0000	0.357358
447.5000	0.360329
447.0000	0.363226
446.5000	0.366118
446.0000	0.369023
445.5000	0.372015
445.0000	0.374921
444.5000	0.377725
444.0000	0.380399
443.5000	0.383006
443.0000	0.38537
442.5000	0.387503
442.0000	0.389637
441.5000	0.391341
441.0000	0.39284
440.5000	0.394265
440.0000	0.395503
439.5000	0.396566
439.0000	0.397394
438.5000	0.398135
438.0000	0.398806
437.5000	0.399414
437.0000	0.399592
436.5000	0.399806
436.0000	0.399614
435.5000	0.399343
435.0000	0.398884
434.5000	0.398196
434.0000	0.397457
433.5000	0.396526
433.0000	0.395615
432.5000	0.39456
432.0000	0.393423
431.5000	0.392145
431.0000	0.390893
430.5000	0.389261
430.0000	0.387896
429.5000	0.386402
429.0000	0.384831
428.5000	0.383244
428.0000	0.381678
427.5000	0.380354
427.0000	0.378595
426.5000	0.377014
426.0000	0.375347
425.5000	0.373951
425.0000	0.372476
424.5000	0.371186
424.0000	0.370106
423.5000	0.369027
423.0000	0.367969
422.5000	0.366964
422.0000	0.365984
421.5000	0.364854
421.0000	0.363524
420.5000	0.362325
420.0000	0.360861
419.5000	0.359556
419.0000	0.358148
418.5000	0.357103
418.0000	0.356302
417.5000	0.355122
417.0000	0.353848
416.5000	0.352656
416.0000	0.35149
415.5000	0.350531
415.0000	0.348876
414.5000	0.347396
414.0000	0.345661
413.5000	0.344223
413.0000	0.342528
412.5000	0.340741
412.0000	0.338937
411.5000	0.337057
411.0000	0.335115
410.5000	0.333199
410.0000	0.331113
409.5000	0.329053
409.0000	0.326847
408.5000	0.324839
408.0000	0.322262
407.5000	0.32006
407.0000	0.317598
406.5000	0.315261
406.0000	0.313005
405.5000	0.310586
405.0000	0.308256
404.5000	0.305518
404.0000	0.303722
403.5000	0.301505
403.0000	0.299442
402.5000	0.297322
402.0000	0.295027
401.5000	0.293262
401.0000	0.291188
400.5000	0.28954
400.0000	0.287778
399.5000	0.286161
399.0000	0.284764
398.5000	0.283452
398.0000	0.282304
397.5000	0.281144
397.0000	0.280106
396.5000	0.279079
396.0000	0.278003
395.5000	0.277293
395.0000	0.276708
394.5000	0.275837
394.0000	0.275097
393.5000	0.274068
393.0000	0.273698
392.5000	0.273242
392.0000	0.272488
391.5000	0.271934
391.0000	0.271428
390.5000	0.271129
390.0000	0.2706
389.5000	0.269971
389.0000	0.269654
388.5000	0.269493
388.0000	0.269004
387.5000	0.268903
387.0000	0.268387
386.5000	0.268222
386.0000	0.267812
385.5000	0.267227
385.0000	0.266483
384.5000	0.265915
384.0000	0.265156
383.5000	0.264592
383.0000	0.26358
382.5000	0.263291
382.0000	0.262246
381.5000	0.261951
381.0000	0.261236
380.5000	0.260447
380.0000	0.25983
379.5000	0.259073
379.0000	0.258082
378.5000	0.256801
378.0000	0.255577
377.5000	0.254479
377.0000	0.253306
376.5000	0.252272
376.0000	0.251038
375.5000	0.250028
375.0000	0.248967
374.5000	0.247875
374.0000	0.246302
373.5000	0.244948
373.0000	0.243456
372.5000	0.242177
372.0000	0.240887
371.5000	0.239565
371.0000	0.238865
370.5000	0.237858
370.0000	0.235958
369.5000	0.23526
369.0000	0.234555
368.5000	0.232969
368.0000	0.232047
367.5000	0.23153
367.0000	0.23068
366.5000	0.229303
366.0000	0.227894
365.5000	0.226875
365.0000	0.226102
364.5000	0.224728
364.0000	0.224229
363.5000	0.223613
363.0000	0.223152
362.5000	0.222652
362.0000	0.222131
361.5000	0.221994
361.0000	0.220838
360.5000	0.220416
360.0000	0.219905
359.5000	0.218681
359.0000	0.218208
358.5000	0.217162
358.0000	0.216392
357.5000	0.215728
357.0000	0.214906
356.5000	0.214361
356.0000	0.213798
355.5000	0.213575
355.0000	0.213221
354.5000	0.213169
354.0000	0.212879
353.5000	0.212951
353.0000	0.213146
352.5000	0.213068
352.0000	0.213398
351.5000	0.213439
351.0000	0.214222
350.5000	0.21447
350.0000	0.214928
349.5000	0.21513
349.0000	0.215232
348.5000	0.215359
348.0000	0.21576
347.5000	0.215864
347.0000	0.216488
346.5000	0.217179
346.0000	0.218093
345.5000	0.219006
345.0000	0.219464
344.5000	0.220596
344.0000	0.221673
343.5000	0.222487
343.0000	0.222878
342.5000	0.222514
342.0000	0.223257
341.5000	0.223098
341.0000	0.222974
340.5000	0.2223
340.0000	0.223779
339.5000	0.223648
339.0000	0.22342
338.5000	0.223493
338.0000	0.223344
337.5000	0.222941
337.0000	0.222594
336.5000	0.221949
336.0000	0.221689
335.5000	0.221018
335.0000	0.220192
334.5000	0.219135
334.0000	0.218559
333.5000	0.217281
333.0000	0.216523
332.5000	0.215519
332.0000	0.214498
331.5000	0.213678
331.0000	0.212626
330.5000	0.211703
330.0000	0.210905
329.5000	0.209746
329.0000	0.20873
328.5000	0.208033
328.0000	0.207092
327.5000	0.20615
327.0000	0.204998
326.5000	0.203781
326.0000	0.202918
325.5000	0.202395
325.0000	0.20134
324.5000	0.20051
324.0000	0.199927
323.5000	0.198982
323.0000	0.197821
322.5000	0.196823
322.0000	0.196036
321.5000	0.194848
321.0000	0.194261
320.5000	0.194664
320.0000	0.194903
319.5000	0.195237
319.0000	0.19512
318.5000	0.195308
318.0000	0.195334
317.5000	0.194618
317.0000	0.194248
316.5000	0.194084
316.0000	0.193976
315.5000	0.194443
315.0000	0.194372
314.5000	0.194318
314.0000	0.194232
313.5000	0.193956
313.0000	0.193819
312.5000	0.193762
312.0000	0.19405
311.5000	0.193989
311.0000	0.194322
310.5000	0.194833
310.0000	0.195013
309.5000	0.194939
309.0000	0.194733
308.5000	0.195023
308.0000	0.195248
307.5000	0.195675
307.0000	0.19543
306.5000	0.196098
306.0000	0.196887
305.5000	0.197748
305.0000	0.198538
304.5000	0.199434
304.0000	0.200663
303.5000	0.20178
303.0000	0.20257
302.5000	0.203841
302.0000	0.205095
301.5000	0.207239
301.0000	0.208762
300.5000	0.211375
300.0000	0.213848
