A	B	C	D
670	10889.54243	8565	0.78655
671	12323.96689	9695	0.78668
672	14126.11206	11110	0.78645
673	17989.0348	14140	0.78598
674	22194.8674	17445	0.78597
675	28035.12886	22030	0.78578
676	35538.99801	27930	0.78585
677	46219.29962	36310	0.78555
678	53353.64412	41895	0.78525
679	61276.35027	48130	0.78543
680	68889.00835	54075	0.78497
681	75652.63673	59405	0.78525
682	82407.52879	64740	0.78561
683	92637.50343	72745	0.78526
684	102098.42389	80200	0.78551
685	108200.60395	85000	0.78557
686	112684.13526	88570	0.786
687	106319.52425	83575	0.78608
688	99485.26038	78195	0.786
689	87258.25254	68595	0.78612
690	76744.34669	60285	0.78553
691	71056.87281	55860	0.78613
692	68424.49157	53770	0.78583
693	68184.66505	53615	0.78632
694	69080.67083	54285	0.78582
695	68277.11299	53655	0.78584
696	70232.99294	55170	0.78553
697	66425.00676	52210	0.786
698	66697.80243	52385	0.78541
699	66420.81157	52170	0.78544
700	68258.66071	53620	0.78554
701	66882.97523	52525	0.78532
702	66415.12768	52150	0.78521
703	63984.72502	50250	0.78534
704	67659.67547	53125	0.78518
705	69479.24711	54570	0.78541
706	69183.30502	54330	0.7853
707	71633.68322	56255	0.78531
708	70743.72509	55565	0.78544
709	69267.30285	54405	0.78543
710	70157.60855	55105	0.78544
711	71680.08983	56365	0.78634
712	70596.90071	55545	0.78679
713	72791.87736	57250	0.78651
714	68504.8359	53955	0.78759
715	69686.58744	54830	0.78683
716	67525.89703	53105	0.78643
717	64563.8167	50765	0.78626
718	61618.59295	48455	0.78636
719	61216.28019	48110	0.7859
720	58947.94912	46325	0.78586
721	55900.82533	43935	0.78594
722	51733.92726	40655	0.78584
723	51655.93106	40585	0.78568
724	49150.23965	38615	0.78565
725	44288.29735	34795	0.78564
726	41861.63736	32890	0.78568
727	41361.12672	32505	0.78588
728	38776.44805	30485	0.78617
729	35498.7718	27900	0.78594
730	35001.49595	27500	0.78568
