A	B	C	D
670	250229.74427	195945	0.78306
671	337100.52446	263910	0.78288
672	464578.43092	363860	0.7832
673	669430.96556	523915	0.78263
674	907079.21356	710145	0.78288
675	1.19966E6	939140	0.78283
676	1.54713E6	1.21092E6	0.78267
677	1.9716E6	1.54342E6	0.78282
678	2.41042E6	1.88713E6	0.7829
679	2.85587E6	2.23604E6	0.78296
680	3.3269E6	2.60478E6	0.78294
681	3.8082E6	2.98167E6	0.78296
682	4.23784E6	3.31777E6	0.7829
683	4.69727E6	3.67881E6	0.78318
684	5.06142E6	3.9633E6	0.78304
685	5.33378E6	4.17419E6	0.78259
686	5.33751E6	4.17818E6	0.78279
687	5.21841E6	4.08259E6	0.78233
688	4.9506E6	3.87235E6	0.78218
689	4.60369E6	3.60251E6	0.78251
690	4.13633E6	3.23824E6	0.78285
691	3.86984E6	3.02955E6	0.78285
692	3.5987E6	2.81812E6	0.78308
693	3.48772E6	2.73223E6	0.78337
694	3.38033E6	2.64942E6	0.78377
695	3.31133E6	2.59506E6	0.78368
696	3.22882E6	2.53148E6	0.78402
697	3.16119E6	2.47754E6	0.78373
698	3.11821E6	2.44404E6	0.78379
699	2.97163E6	2.32857E6	0.7836
700	2.90409E6	2.27388E6	0.78298
701	2.8016E6	2.19393E6	0.78309
702	2.76951E6	2.16864E6	0.78304
703	2.72203E6	2.13186E6	0.78319
704	2.72125E6	2.13205E6	0.78348
705	2.64871E6	2.07451E6	0.7832
706	2.62385E6	2.0551E6	0.78322
707	2.67055E6	2.092E6	0.78335
708	2.66025E6	2.08443E6	0.78354
709	2.64375E6	2.07336E6	0.78424
710	2.61468E6	2.05047E6	0.7842
711	2.61729E6	2.05187E6	0.78396
712	2.64896E6	2.07704E6	0.78408
713	2.6238E6	2.05574E6	0.78349
714	2.55449E6	2.00068E6	0.78318
715	2.54291E6	1.99023E6	0.78265
716	2.50765E6	1.96338E6	0.78295
717	2.41962E6	1.89364E6	0.78261
718	2.35962E6	1.84586E6	0.78225
719	2.2185E6	1.73623E6	0.78262
720	2.12125E6	1.66017E6	0.78263
721	2.04788E6	1.60208E6	0.78224
722	1.97788E6	1.54752E6	0.78237
723	1.8652E6	1.45927E6	0.78234
724	1.77349E6	1.3874E6	0.78226
725	1.72556E6	1.35071E6	0.78275
726	1.61421E6	1.26372E6	0.78285
727	1.52717E6	1.1965E6	0.78346
728	1.44666E6	1.13337E6	0.78343
729	1.38738E6	1.0874E6	0.78377
730	1.30925E6	1.02617E6	0.78378
