A	B	C	D
670	212578.55224	166116	0.78143
671	285258.08198	222906	0.78142
672	393289.80621	307381	0.78156
673	543301.47486	424511	0.78135
674	724960.72275	566641	0.7816
675	975763.70882	762096	0.78102
676	1.2489E6	975626	0.78119
677	1.59074E6	1.2421E6	0.78083
678	1.9652E6	1.53477E6	0.78098
679	2.3871E6	1.86498E6	0.78127
680	2.85802E6	2.23249E6	0.78113
681	3.34988E6	2.6159E6	0.78089
682	3.91903E6	3.062E6	0.78131
683	4.31648E6	3.37006E6	0.78073
684	4.90462E6	3.83111E6	0.78112
685	5.19429E6	4.05597E6	0.78086
686	5.34307E6	4.17586E6	0.78154
687	5.3462E6	4.1756E6	0.78104
688	5.11881E6	3.99819E6	0.78108
689	4.82351E6	3.76852E6	0.78128
690	4.53304E6	3.54273E6	0.78153
691	4.25584E6	3.32711E6	0.78178
692	4.05165E6	3.16717E6	0.7817
693	3.93914E6	3.08123E6	0.78221
694	3.924E6	3.07053E6	0.78249
695	3.91124E6	3.06048E6	0.78248
696	3.91064E6	3.06046E6	0.7826
697	3.91421E6	3.06334E6	0.78262
698	3.93528E6	3.07749E6	0.78202
699	3.90321E6	3.0537E6	0.78236
700	3.92179E6	3.06855E6	0.78243
701	3.92279E6	3.07037E6	0.7827
702	3.93152E6	3.07673E6	0.78258
703	3.97674E6	3.11399E6	0.78305
704	4.03875E6	3.16182E6	0.78287
705	4.08114E6	3.19817E6	0.78364
706	4.095E6	3.2113E6	0.78417
707	4.2289E6	3.31825E6	0.78465
708	4.26013E6	3.3435E6	0.78482
709	4.23304E6	3.32087E6	0.78451
710	4.35077E6	3.41135E6	0.78408
711	4.34726E6	3.40888E6	0.78414
712	4.37484E6	3.42734E6	0.78342
713	4.34744E6	3.40477E6	0.78316
714	4.30274E6	3.36859E6	0.78289
715	4.24318E6	3.32131E6	0.78274
716	4.19204E6	3.28125E6	0.78273
717	4.04317E6	3.16517E6	0.78284
718	3.93526E6	3.08086E6	0.78289
719	3.82651E6	2.99379E6	0.78238
720	3.68168E6	2.88022E6	0.78231
721	3.51318E6	2.74815E6	0.78225
722	3.40636E6	2.6653E6	0.78245
723	3.25489E6	2.54707E6	0.78253
724	3.07286E6	2.40532E6	0.78276
725	2.95335E6	2.31146E6	0.78265
726	2.80369E6	2.19381E6	0.78247
727	2.6443E6	2.0711E6	0.78323
728	2.5197E6	1.97414E6	0.78348
729	2.39053E6	1.87406E6	0.78395
730	2.25929E6	1.77159E6	0.78413
